…
```
d.cancer <- read_csv(
  "cancer.csv", locale=locale(encoding="GBK"))
## Parsed with column specification:
## cols(
##   id = col_double(),
##   age = col_double(),
##   sex = col_character(),
##   type = col_character(),
##   v0 = col_double(),
##   v1 = col_double()
## )
d.cancer
## # A tibble: 34 x 6
##       id   age sex   type     v0     v1
##    <dbl> <dbl> <chr> <chr> <dbl>  <dbl>
##  1     1    70 F     腺癌   26.5   2.91
##  2     2    70 F     腺癌  135.   35.1 
##  3     3    69 F     腺癌  210.   74.4 
##  4     4    68 M     腺癌   61    35.0 
##  5     5    67 M     鳞癌  238.  128.  
##  6     6    75 F     腺癌  330.  112.  
##  7     7    52 M     鳞癌  105.   32.1 
##  8     8    71 M     鳞癌   85.2  29.2 
##  9     9    68 M     鳞癌  102.   22.2 
## 10    10    79 M     鳞癌   65.5  21.9 
## # ... with 24 more rows
```
…
又如，数出NHANES数据框中ID与SurveyYr每一对组合的出现次数, 筛选出二次及以上者，并降序排列，仅显示前100行结果：

```
NHANES %>%
  count(ID, SurveyYr) %>%
  filter(n >=2 ) %>%
  arrange(desc(n)) %>%
  head(100)
## # A tibble: 100 x 3
##       ID SurveyYr     n
##    <int> <fct>    <int>
##  1 70324 2011_12      8
##  2 62927 2011_12      7
##  3 63297 2011_12      7
##  4 69626 2011_12      7
##  5 60566 2009_10      6
##  6 61442 2009_10      6
##  7 63163 2011_12      6
##  8 63330 2011_12      6
##  9 63390 2011_12      6
## 10 63744 2011_12      6
## # ... with 90 more rows
```
…
现在希望将其中的时间分离出来， 不同时间变成不同的观测，每个病人的三次检查转换成三个观测。 tidyr包的`gather()`函数将宽表变成长表，但是将不同测量项目也转换到了不同的行：

```
d.wide %>%
  gather(x_1, x_2, x_3, y_1, y_2, y_3, key="variable", value="value")
## # A tibble: 30 x 3
##    subject variable value
##      <dbl> <chr>    <dbl>
##  1       1 x_1          5
##  2       2 x_1          8
##  3       3 x_1          7
##  4       4 x_1          1
##  5       5 x_1          9
##  6       1 x_2          7
##  7       2 x_2          2
##  8       3 x_2          2
##  9       4 x_2          5
## 10       5 x_2          7
## # ... with 20 more rows
```

tidyr包的`separate()`可以用来帮助拆分`x_1`, `y_1`这样的名字， 这样可以将测量项目名称与时间分离开来， 如：

```
d.wide %>%
  gather(x_1, x_2, x_3, y_1, y_2, y_3, key="variable", value="value") %>%
  separate(variable, into=c("variable", "time"), sep="_")
## # A tibble: 30 x 4
##    subject variable time  value
##      <dbl> <chr>    <chr> <dbl>
##  1       1 x        1         5
##  2       2 x        1         8
##  3       3 x        1         7
##  4       4 x        1         1
##  5       5 x        1         9
##  6       1 x        2         7
##  7       2 x        2         2
##  8       3 x        2         2
##  9       4 x        2         5
## 10       5 x        2         7
## # ... with 20 more rows
```
…
