…
这里将`fill`映射到了Sex， 使得表示男女的条形填充了不同的颜色。 如果不满意上面的颜色， 可以用`scale_fill_manual()`函数人为地指定颜色、对应离散值和图例标签。 R扩展包colourpicker提供了很好交互图形界面用来挑选颜色。

`geom_col()`不仅限于画频数或者比例的条形图， 此函数可以将一般用折线图表现的内容画成条形图， 但一定要注意一点：y坐标轴必须从0开始， 这也是`geom_col()`和`geom_bar()`函数默认的设置。 如果坐标轴不从零开始， 则条形的长度就不能正确表示对应的y变量数值。

例如， socviz包的`oecd_sum`数据集包含各年的美国以及OECD国家的期望寿命：

```
oecd_sum
## # A tibble: 57 x 5
## # Groups:   year [57]
##     year other   usa  diff hi_lo
##    <int> <dbl> <dbl> <dbl> <chr>
##  1  1960  68.6  69.9 1.3   Below
##  2  1961  69.2  70.4 1.2   Below
##  3  1962  68.9  70.2 1.30  Below
##  4  1963  69.1  70   0.9   Below
##  5  1964  69.5  70.3 0.800 Below
##  6  1965  69.6  70.3 0.7   Below
##  7  1966  69.9  70.3 0.400 Below
##  8  1967  70.1  70.7 0.6   Below
##  9  1968  70.1  70.4 0.3   Below
## 10  1969  70.1  70.6 0.5   Below
## # ... with 47 more rows
```
…
### 30.5.1 列联表生成与绘图

虽然ggplot2包能进行一些默认的统计汇总， 但是这些工作毕竟还是用专门的工具处理更好。 tidyverse系列的工具比较适用于进行数据整理和数据汇总， 见第[27](http://www.math.pku.edu.cn/teachers/lidf/docs/Rbook/html/_Rbook/summary-manip.html#summary-manip)章和第[28](http://www.math.pku.edu.cn/teachers/lidf/docs/Rbook/html/_Rbook/summary-summ.html#summary-summ)章。

比如， 将列联表用并列条形图表示， 虽然ggplot2能直接从原始数据作图， 但是用户比较容易混淆频数、比例、行比例、列比例的区别， 最好是预先计算出作图所需的汇总表， 用长表形式表示， 即每个观测为某个分类或者交叉分类的频数。

考虑`gss_sm`数据集中分类变量`bigregion`与分类变量`religion`的列联表作图问题。 频数表：

```
tab <- gss_sm %>%
  count(bigregion, religion)
## Warning: Factor `religion` contains implicit NA, consider using
## `forcats::fct_explicit_na`
tab
## # A tibble: 24 x 3
##    bigregion religion       n
##    <fct>     <fct>      <int>
##  1 Northeast Protestant   158
##  2 Northeast Catholic     162
##  3 Northeast Jewish        27
##  4 Northeast None         112
##  5 Northeast Other         28
##  6 Northeast <NA>           1
##  7 Midwest   Protestant   325
##  8 Midwest   Catholic     172
##  9 Midwest   Jewish         3
## 10 Midwest   None         157
## # ... with 14 more rows
```
…
为了得到ggplot2所需格式， 可以用`as.data.frame(tab2a)`转换。

如果从原始数据直接统计，可以利用dplyr包的`group_by()`分组汇总功能：

```
tab3 <- gss_sm %>%
  group_by(bigregion, religion) %>%
  summarize(N = n()) %>%
  mutate(prop = N / sum(N),
         pct = round(100 * prop, 2))
## Warning: Factor `religion` contains implicit NA, consider using
## `forcats::fct_explicit_na`
tab3
## # A tibble: 24 x 5
## # Groups:   bigregion [4]
##    bigregion religion       N    prop   pct
##    <fct>     <fct>      <int>   <dbl> <dbl>
##  1 Northeast Protestant   158 0.324   32.4 
##  2 Northeast Catholic     162 0.332   33.2 
##  3 Northeast Jewish        27 0.0553   5.53
##  4 Northeast None         112 0.230   23.0 
##  5 Northeast Other         28 0.0574   5.74
##  6 Northeast <NA>           1 0.00205  0.2 
##  7 Midwest   Protestant   325 0.468   46.8 
##  8 Midwest   Catholic     172 0.247   24.8 
##  9 Midwest   Jewish         3 0.00432  0.43
## 10 Midwest   None         157 0.226   22.6 
## # ... with 14 more rows
```
…
